Proyecto Tickets TD
…
# Mostrar la tabla resultante
leche_por_marca

## # A tibble: 53 × 4
##    Marca              Precio_Maximo_Marca Precio_Minimo_Marca Precio_Medio_Marca
##    <chr>                            <dbl>               <dbl>              <dbl>
##  1 "PASTEL CREMA "                   0.4                 0.4               0.4  
##  2 "LECHE SEMI      …                0.83                0.83              0.83 
##  3 "LECHE SEMI      …                0.83                0.83              0.83 
##  4 "CAFÉ LECHE CAPPU…                0.85                0.85              0.85 
##  5 "LECHE SEMI      …                0.85                0.85              0.85 
##  6 "YOGUR FRESA"                     1                   0.76              0.88 
##  7 "LECHE ENTERA    …                0.94                0.91              0.925
##  8 "LECHE ENTERA    …                0.94                0.94              0.94 
##  9 "YOGUR COCO      …                0.95                0.95              0.95 
## 10 "YOGUR COCO      …                0.95                0.95              0.95 
## # ℹ 43 more rows
…
# Mostrar todos los productos ordenados por mayor diferencia de IVA
resultados_completos

## # A tibble: 1,586 × 4
##    Producto                         Precio_con_IVA Precio_sin_IVA Diferencia_IVA
##    <chr>                                     <dbl>          <dbl>          <dbl>
##  1 "ALISTADO MEDIANO"                         31.3           25.9           5.44
##  2 "QUISQUILLA MEDIANA"                       27.9           23.1           4.84
##  3 "LENGUADO FRESC EUROP"                     25.0           20.6           4.33
##  4 "QUESO AÑEJO FUERTE"                       19.2           15.9           3.34
##  5 "MEDIO SALMÓN"                             17.1           14.1           2.96
##  6 "BOGAVANTE CRUDO"                          14.8           12.3           2.58
##  7 "BOGAVANTE CRUDO               …           14.8           12.3           2.58
##  8 "ENTRECOT"                                 12.9           10.7           2.24
##  9 "RAPE FRESCO ENTERO"                       12.9           10.7           2.24
## 10 "LOTE SOPLO INTENSE"                       12.5           10.3           2.17
## # ℹ 1,576 more rows
…
# Buscamos productos con más de un precio distinto
productos_con_precios_distintos <- productos_global2 %>%
  filter(!is.na(P.Unit), !is.na(Descripcion)) %>%
  group_by(Descripcion) %>%
  summarise(num_precios_distintos = n_distinct(P.Unit)) %>%
  filter(num_precios_distintos > 1)

productos_con_precios_distintos

## # A tibble: 445 × 2
##    Descripcion          num_precios_distintos
##    <chr>                                <int>
##  1 + PROTEÍNA ARANDANOS                     2
##  2 1/2 CONEJO TROCEADO                     12
##  3 1/2 POLLO PART CERT                      4
##  4 100 % TRIGO ESPELTA                      2
##  5 12 HUEVOS CAMPEROS                       4
##  6 12 HUEVOS GRANDES-L                      4
##  7 12 HUEVOS SUPER GRAN                     4
##  8 200 SERVIL. BLANCAS                      2
##  9 3 VEGETALES                              2
## 10 4 ESTACIONES                             2
## # ℹ 435 more rows
…
# Calculamos la frecuencia de cada producto en el conjunto de datos
productos_frecuencia <- productos_global %>%
  group_by(Descripcion) %>%
  summarise(frecuencia = n()) %>%
  arrange(frecuencia)

# Seleccionamos los productos con menor frecuencia (baja demanda)
productos_baja_demanda <- productos_frecuencia %>%
  filter(frecuencia <= quantile(frecuencia, 0.25))  # Tomamos el 25% menos comprado

# Mostramos los productos con baja demanda
print(productos_baja_demanda)

## # A tibble: 542 × 2
##    Descripcion          frecuencia
##    <chr>                     <int>
##  1 +PROT PLA-AÇAÍ                1
##  2 +PROTEÍNAS CAFÉ               1
##  3 1/2 POLLO PARTIDO             1
##  4 12 HUEVOS MEDIANOS -          1
##  5 12 HUEVOS MEDIANOS-M          1
##  6 18 HUEVOS CODORNIZ            1
##  7 30 B.ENVASES C.FÁCIL          1
##  8 6 HUEVOS COCIDOS              1
##  9 6 HUEVOS GRANDES-L            1
## 10 A. ALIÑADA PICADEDOS          1
## # ℹ 532 more rows
…
# Agrupamos por "Descripcion" y "max_iva", sumamos el importe total en cada grupo
# y ordenamos, primero, por el IVA en forma descendente y luego por el importe total.
productos_por_iva <- productos_iva %>%
  group_by(Descripcion, max_iva) %>%
  summarise(Total_con_IVA = sum(Importe, na.rm = TRUE), .groups = "drop") %>%
  arrange(desc(max_iva), desc(Total_con_IVA))

# Mostramos el resultado final: los productos con mayor carga impositiva por IVA.
productos_por_iva

## # A tibble: 89 × 3
##    Descripcion        max_iva Total_con_IVA
##    <chr>                <dbl>         <dbl>
##  1 PLATANO                 21          94.4
##  2 SALMON ENTERO           21          77.6
##  3 SEPIA LONJA             21          65.7
##  4 HABAS                   21          56.8
##  5 BACALADILLA             21          40.6
##  6 BANANA                  21          39.6
##  7 RODABALLO               21          38.6
##  8 SEPIA FRESCA            21          32.1
##  9 CALABACIN VERDE         21          29  
## 10 SEPIA SUCIA REFRIG      21          28.7
## # ℹ 79 more rows
…
